[
    {
        "status" : "En cours",
        "description": "Ceci est un test",
        "membre": "NM",
        "title": "Todo 1",
        "date": "13/01/2022"

    },
    {
        "status" : "A faire",
        "description": "C'est chaud '-'",
        "membre": "NM",
        "title": "Todo 2",
        "date": "12/01/2022"
    },
    {
        "status" : "Terminée",
        "description": "Ez",
        "membre": "NM",
        "title": "Todo 3",
        "date": "11/01/2022"
    }
]